<!--?xml version="1.0" encoding="UTF-8" standalone="no"?-->
<!-- Created with Inkscape (http://www.inkscape.org/) -->

<svg width="210mm" height="297mm" viewBox="0 0 210 297" version="1.1" id="svg5" inkscape:version="1.1.2 (0a00cf5339, 2022-02-04)" sodipodi:docname="romb6.svg" xmlns:inkscape="http://www.inkscape.org/namespaces/inkscape" xmlns:sodipodi="http://sodipodi.sourceforge.net/DTD/sodipodi-0.dtd" xmlns="http://www.w3.org/2000/svg" xmlns:svg="http://www.w3.org/2000/svg" style="">
  <sodipodi:namedview id="namedview7" pagecolor="#ffffff" bordercolor="#111111" borderopacity="1" inkscape:pageshadow="0" inkscape:pageopacity="0" inkscape:pagecheckerboard="1" inkscape:document-units="mm" showgrid="false" inkscape:zoom="1.0973349" inkscape:cx="276.12355" inkscape:cy="536.29936" inkscape:window-width="2560" inkscape:window-height="1377" inkscape:window-x="0" inkscape:window-y="0" inkscape:window-maximized="1" inkscape:current-layer="layer1"></sodipodi:namedview>
  <defs id="defs2"></defs>
  <g inkscape:label="Layer 1" inkscape:groupmode="layer" id="layer1">
    <path style="fill:none;stroke:#000000;stroke-width:0.264583px;stroke-linecap:butt;stroke-linejoin:miter;stroke-opacity:1" d="m 96.496416,81.426239 -46.11757,46.117571 36.580728,63.35968" id="path3722" class="GVpdpGVt_0"></path>
    <path style="fill:none;stroke:#000000;stroke-width:0.264583px;stroke-linecap:butt;stroke-linejoin:miter;stroke-opacity:1" d="M 86.959574,190.90349 148.33014,129.53292" id="path3724" class="GVpdpGVt_1"></path>
    <path style="fill:none;stroke:#000000;stroke-width:0.264583px;stroke-linecap:butt;stroke-linejoin:miter;stroke-opacity:1" d="M 96.496414,81.426237 146.1369,131.06672" id="path3726" class="GVpdpGVt_2"></path>
    <path style="fill:none;stroke:#000000;stroke-width:0.264583px;stroke-linecap:butt;stroke-linejoin:miter;stroke-opacity:1" d="M 84.618496,108.18299 H 105.20694" id="path4905" class="GVpdpGVt_3"></path>
    <path style="fill:none;stroke:#000000;stroke-width:0.264583px;stroke-linecap:butt;stroke-linejoin:miter;stroke-opacity:1" d="M 76.258546,116.44999 H 112.42481" id="path4907" class="GVpdpGVt_4"></path>
    <path style="fill:none;stroke:#000000;stroke-width:0.264583px;stroke-linecap:butt;stroke-linejoin:miter;stroke-opacity:1" d="m 68.61879,127.26999 h 52.30038" id="path4909" class="GVpdpGVt_5"></path>
    <path style="fill:none;stroke:#000000;stroke-width:0.264583px;stroke-linecap:butt;stroke-linejoin:miter;stroke-opacity:1" d="M 76.782688,137.54711 H 111.43774" id="path4911" class="GVpdpGVt_6"></path>
    <path style="fill:none;stroke:#000000;stroke-width:0.264583px;stroke-linecap:butt;stroke-linejoin:miter;stroke-opacity:1" d="M 80.796661,147.74016 H 104.60801" id="path4913" class="GVpdpGVt_7"></path>
    <path style="fill:none;stroke:#000000;stroke-width:0.264583px;stroke-linecap:butt;stroke-linejoin:miter;stroke-opacity:1" d="M 82.157847,157.52597 H 102.97039" id="path4915" class="GVpdpGVt_8"></path>
  </g>
<style data-made-with="vivus-instant">.GVpdpGVt_0{stroke-dasharray:139 141;stroke-dashoffset:140;animation:GVpdpGVt_draw 2000ms linear 0ms forwards;}.GVpdpGVt_1{stroke-dasharray:87 89;stroke-dashoffset:88;animation:GVpdpGVt_draw 2000ms linear 125ms forwards;}.GVpdpGVt_2{stroke-dasharray:71 73;stroke-dashoffset:72;animation:GVpdpGVt_draw 2000ms linear 250ms forwards;}.GVpdpGVt_3{stroke-dasharray:21 23;stroke-dashoffset:22;animation:GVpdpGVt_draw 2000ms linear 375ms forwards;}.GVpdpGVt_4{stroke-dasharray:37 39;stroke-dashoffset:38;animation:GVpdpGVt_draw 2000ms linear 500ms forwards;}.GVpdpGVt_5{stroke-dasharray:53 55;stroke-dashoffset:54;animation:GVpdpGVt_draw 2000ms linear 625ms forwards;}.GVpdpGVt_6{stroke-dasharray:35 37;stroke-dashoffset:36;animation:GVpdpGVt_draw 2000ms linear 750ms forwards;}.GVpdpGVt_7{stroke-dasharray:24 26;stroke-dashoffset:25;animation:GVpdpGVt_draw 2000ms linear 875ms forwards;}.GVpdpGVt_8{stroke-dasharray:21 23;stroke-dashoffset:22;animation:GVpdpGVt_draw 2000ms linear 1000ms forwards;}@keyframes GVpdpGVt_draw{100%{stroke-dashoffset:0;}}@keyframes GVpdpGVt_fade{0%{stroke-opacity:1;}94.44444444444444%{stroke-opacity:1;}100%{stroke-opacity:0;}}</style></svg>
