<!--?xml version="1.0" encoding="UTF-8" standalone="no"?-->
<!-- Created with Inkscape (http://www.inkscape.org/) -->

<svg width="210mm" height="297mm" viewBox="0 0 210 297" version="1.1" id="svg5" inkscape:version="1.1.2 (0a00cf5339, 2022-02-04)" sodipodi:docname="romb3.svg" xmlns:inkscape="http://www.inkscape.org/namespaces/inkscape" xmlns:sodipodi="http://sodipodi.sourceforge.net/DTD/sodipodi-0.dtd" xmlns="http://www.w3.org/2000/svg" xmlns:svg="http://www.w3.org/2000/svg" style="">
  <sodipodi:namedview id="namedview7" pagecolor="#ffffff" bordercolor="#111111" borderopacity="1" inkscape:pageshadow="0" inkscape:pageopacity="0" inkscape:pagecheckerboard="1" inkscape:document-units="mm" showgrid="false" inkscape:zoom="1.0973349" inkscape:cx="276.12355" inkscape:cy="536.29936" inkscape:window-width="2560" inkscape:window-height="1377" inkscape:window-x="0" inkscape:window-y="0" inkscape:window-maximized="1" inkscape:current-layer="layer1"></sodipodi:namedview>
  <defs id="defs2"></defs>
  <g inkscape:label="Layer 1" inkscape:groupmode="layer" id="layer1">
    <path style="fill:none;stroke:#000000;stroke-width:0.264583px;stroke-linecap:butt;stroke-linejoin:miter;stroke-opacity:1" d="m 96.496416,81.426239 -46.11757,46.117571 36.580728,63.35968" id="path3722" class="VTQPEkWs_0"></path>
    <path style="fill:none;stroke:#000000;stroke-width:0.264583px;stroke-linecap:butt;stroke-linejoin:miter;stroke-opacity:1" d="M 86.959574,190.90349 148.33014,129.53292" id="path3724" class="VTQPEkWs_1"></path>
    <path style="fill:none;stroke:#000000;stroke-width:0.264583px;stroke-linecap:butt;stroke-linejoin:miter;stroke-opacity:1" d="M 96.496414,81.426237 146.1369,131.06672" id="path3726" class="VTQPEkWs_2"></path>
    <path style="fill:none;stroke:#000000;stroke-width:0.264583px;stroke-linecap:butt;stroke-linejoin:miter;stroke-opacity:1" d="m 81.282303,110.03223 v 46.10421" id="path4257" class="VTQPEkWs_3"></path>
    <path style="fill:none;stroke:#000000;stroke-width:0.264583px;stroke-linecap:butt;stroke-linejoin:miter;stroke-opacity:1" d="m 107.76231,109.20071 v 46.60797" id="path4259" class="VTQPEkWs_4"></path>
    <path style="fill:none;stroke:#000000;stroke-width:0.264583px;stroke-linecap:butt;stroke-linejoin:miter;stroke-opacity:1" d="M 95.027773,97.976509 V 162.95647" id="path4302" class="VTQPEkWs_5"></path>
  </g>
<style data-made-with="vivus-instant">.VTQPEkWs_0{stroke-dasharray:139 141;stroke-dashoffset:140;animation:VTQPEkWs_draw 2000ms linear 0ms forwards;}.VTQPEkWs_1{stroke-dasharray:87 89;stroke-dashoffset:88;animation:VTQPEkWs_draw 2000ms linear 200ms forwards;}.VTQPEkWs_2{stroke-dasharray:71 73;stroke-dashoffset:72;animation:VTQPEkWs_draw 2000ms linear 400ms forwards;}.VTQPEkWs_3{stroke-dasharray:47 49;stroke-dashoffset:48;animation:VTQPEkWs_draw 2000ms linear 600ms forwards;}.VTQPEkWs_4{stroke-dasharray:47 49;stroke-dashoffset:48;animation:VTQPEkWs_draw 2000ms linear 800ms forwards;}.VTQPEkWs_5{stroke-dasharray:65 67;stroke-dashoffset:66;animation:VTQPEkWs_draw 2000ms linear 1000ms forwards;}@keyframes VTQPEkWs_draw{100%{stroke-dashoffset:0;}}@keyframes VTQPEkWs_fade{0%{stroke-opacity:1;}94.44444444444444%{stroke-opacity:1;}100%{stroke-opacity:0;}}</style></svg>
