<!--?xml version="1.0" encoding="UTF-8" standalone="no"?-->
<!-- Created with Inkscape (http://www.inkscape.org/) -->

<svg width="210mm" height="297mm" viewBox="0 0 210 297" version="1.1" id="svg5" inkscape:version="1.1.2 (0a00cf5339, 2022-02-04)" sodipodi:docname="romb7.svg" xmlns:inkscape="http://www.inkscape.org/namespaces/inkscape" xmlns:sodipodi="http://sodipodi.sourceforge.net/DTD/sodipodi-0.dtd" xmlns="http://www.w3.org/2000/svg" xmlns:svg="http://www.w3.org/2000/svg" style="">
  <sodipodi:namedview id="namedview7" pagecolor="#ffffff" bordercolor="#111111" borderopacity="1" inkscape:pageshadow="0" inkscape:pageopacity="0" inkscape:pagecheckerboard="1" inkscape:document-units="mm" showgrid="false" inkscape:zoom="1.0973349" inkscape:cx="276.12355" inkscape:cy="536.29936" inkscape:window-width="2560" inkscape:window-height="1377" inkscape:window-x="0" inkscape:window-y="0" inkscape:window-maximized="1" inkscape:current-layer="layer1"></sodipodi:namedview>
  <defs id="defs2"></defs>
  <g inkscape:label="Layer 1" inkscape:groupmode="layer" id="layer1">
    <path style="fill:none;stroke:#000000;stroke-width:0.264583px;stroke-linecap:butt;stroke-linejoin:miter;stroke-opacity:1" d="m 96.496416,81.426239 -46.11757,46.117571 36.580728,63.35968" id="path3722" class="tzqLFCig_0"></path>
    <path style="fill:none;stroke:#000000;stroke-width:0.264583px;stroke-linecap:butt;stroke-linejoin:miter;stroke-opacity:1" d="M 86.959574,190.90349 148.33014,129.53292" id="path3724" class="tzqLFCig_1"></path>
    <path style="fill:none;stroke:#000000;stroke-width:0.264583px;stroke-linecap:butt;stroke-linejoin:miter;stroke-opacity:1" d="M 96.496414,81.426237 146.1369,131.06672" id="path3726" class="tzqLFCig_2"></path>
    <path style="fill:none;stroke:#000000;stroke-width:0.264583px;stroke-linecap:butt;stroke-linejoin:miter;stroke-opacity:1" d="m 73.894436,114.3394 v 23.72039" id="path5680" class="tzqLFCig_3"></path>
    <path style="fill:none;stroke:#000000;stroke-width:0.264583px;stroke-linecap:butt;stroke-linejoin:miter;stroke-opacity:1" d="M 73.796278,145.13886 H 88.795145" id="path5682" class="tzqLFCig_4"></path>
    <path style="fill:none;stroke:#000000;stroke-width:0.264583px;stroke-linecap:butt;stroke-linejoin:miter;stroke-opacity:1" d="m 82.279875,116.16006 v 22.17421" id="path5684" class="tzqLFCig_5"></path>
    <path style="fill:none;stroke:#000000;stroke-width:0.264583px;stroke-linecap:butt;stroke-linejoin:miter;stroke-opacity:1" d="m 88.557416,116.06965 v 22.20306" id="path5686" class="tzqLFCig_6"></path>
    <path style="fill:none;stroke:#000000;stroke-width:0.264583px;stroke-linecap:butt;stroke-linejoin:miter;stroke-opacity:1" d="m 103.17201,114.3394 v 23.72039" id="path5811" class="tzqLFCig_7"></path>
    <path style="fill:none;stroke:#000000;stroke-width:0.264583px;stroke-linecap:butt;stroke-linejoin:miter;stroke-opacity:1" d="m 111.55745,116.16006 v 22.17421" id="path5815" class="tzqLFCig_8"></path>
    <path style="fill:none;stroke:#000000;stroke-width:0.264583px;stroke-linecap:butt;stroke-linejoin:miter;stroke-opacity:1" d="m 117.83499,116.06965 v 22.20306" id="path5817" class="tzqLFCig_9"></path>
  </g>
<style data-made-with="vivus-instant">.tzqLFCig_0{stroke-dasharray:139 141;stroke-dashoffset:140;animation:tzqLFCig_draw 2000ms linear 0ms forwards;}.tzqLFCig_1{stroke-dasharray:87 89;stroke-dashoffset:88;animation:tzqLFCig_draw 2000ms linear 111ms forwards;}.tzqLFCig_2{stroke-dasharray:71 73;stroke-dashoffset:72;animation:tzqLFCig_draw 2000ms linear 222ms forwards;}.tzqLFCig_3{stroke-dasharray:24 26;stroke-dashoffset:25;animation:tzqLFCig_draw 2000ms linear 333ms forwards;}.tzqLFCig_4{stroke-dasharray:15 17;stroke-dashoffset:16;animation:tzqLFCig_draw 2000ms linear 444ms forwards;}.tzqLFCig_5{stroke-dasharray:23 25;stroke-dashoffset:24;animation:tzqLFCig_draw 2000ms linear 555ms forwards;}.tzqLFCig_6{stroke-dasharray:23 25;stroke-dashoffset:24;animation:tzqLFCig_draw 2000ms linear 666ms forwards;}.tzqLFCig_7{stroke-dasharray:24 26;stroke-dashoffset:25;animation:tzqLFCig_draw 2000ms linear 777ms forwards;}.tzqLFCig_8{stroke-dasharray:23 25;stroke-dashoffset:24;animation:tzqLFCig_draw 2000ms linear 888ms forwards;}.tzqLFCig_9{stroke-dasharray:23 25;stroke-dashoffset:24;animation:tzqLFCig_draw 2000ms linear 1000ms forwards;}@keyframes tzqLFCig_draw{100%{stroke-dashoffset:0;}}@keyframes tzqLFCig_fade{0%{stroke-opacity:1;}94.44444444444444%{stroke-opacity:1;}100%{stroke-opacity:0;}}</style></svg>
