<?xml version="1.0" encoding="UTF-8" standalone="no"?>
<!-- Created with Inkscape (http://www.inkscape.org/) -->

<svg
   width="210mm"
   height="297mm"
   viewBox="0 0 210 297"
   version="1.1"
   id="svg5"
   inkscape:version="1.1.2 (0a00cf5339, 2022-02-04)"
   sodipodi:docname="icosahedron8.svg"
   xmlns:inkscape="http://www.inkscape.org/namespaces/inkscape"
   xmlns:sodipodi="http://sodipodi.sourceforge.net/DTD/sodipodi-0.dtd"
   xmlns="http://www.w3.org/2000/svg"
   xmlns:svg="http://www.w3.org/2000/svg">
  <sodipodi:namedview
     id="namedview7"
     pagecolor="#ffffff"
     bordercolor="#111111"
     borderopacity="1"
     inkscape:pageshadow="0"
     inkscape:pageopacity="0"
     inkscape:pagecheckerboard="1"
     inkscape:document-units="mm"
     showgrid="false"
     inkscape:zoom="3.1037318"
     inkscape:cx="389.85328"
     inkscape:cy="543.70034"
     inkscape:window-width="2560"
     inkscape:window-height="1377"
     inkscape:window-x="0"
     inkscape:window-y="0"
     inkscape:window-maximized="1"
     inkscape:current-layer="layer1" />
  <defs
     id="defs2" />
  <g
     inkscape:label="Layer 1"
     inkscape:groupmode="layer"
     id="layer1">
    <path
       style="fill:none;stroke:#000000;stroke-width:0.264583px;stroke-linecap:butt;stroke-linejoin:miter;stroke-opacity:1"
       d="M 101.97302,184.13187 137.885,154.89468"
       id="path869" />
    <path
       style="fill:none;stroke:#000000;stroke-width:0.264583px;stroke-linecap:butt;stroke-linejoin:miter;stroke-opacity:1"
       d="M 101.97302,184.13187 59.399968,151.41921"
       id="path871" />
    <path
       style="fill:none;stroke:#000000;stroke-width:0.264583px;stroke-linecap:butt;stroke-linejoin:miter;stroke-opacity:1"
       d="m 59.399968,151.41921 -5.898361,-51.733077 49.926833,-24.714369 49.63451,25.856726 -5.72428,51.703"
       id="path873" />
    <path
       style="fill:none;stroke:#000000;stroke-width:0.264583px;stroke-linecap:butt;stroke-linejoin:miter;stroke-opacity:1"
       d="m 147.33867,152.53149 -45.36565,31.60038"
       id="path875" />
    <path
       style="fill:none;stroke:#000000;stroke-width:0.264583px;stroke-linecap:butt;stroke-linejoin:miter;stroke-opacity:1"
       d="m 103.42844,74.971764 -1.8538,15.963995"
       id="path877" />
    <path
       style="fill:none;stroke:#000000;stroke-width:0.264583px;stroke-linecap:butt;stroke-linejoin:miter;stroke-opacity:1"
       d="m 101.57464,90.935759 51.48831,9.892731"
       id="path879" />
    <path
       style="fill:none;stroke:#000000;stroke-width:0.264583px;stroke-linecap:butt;stroke-linejoin:miter;stroke-opacity:1"
       d="M 53.501607,99.686133 101.57464,90.935759"
       id="path881" />
    <path
       style="fill:none;stroke:#000000;stroke-width:0.264583px;stroke-linecap:butt;stroke-linejoin:miter;stroke-opacity:1"
       d="m 59.399968,151.41921 5.624574,2.24278"
       id="path883" />
    <path
       style="fill:none;stroke:#000000;stroke-width:0.264583px;stroke-linecap:butt;stroke-linejoin:miter;stroke-opacity:1"
       d="M 53.501607,99.686133 65.024542,153.66199"
       id="path885" />
    <path
       style="fill:none;stroke:#000000;stroke-width:0.264583px;stroke-linecap:butt;stroke-linejoin:miter;stroke-opacity:1"
       d="M 65.024542,153.66199 101.57464,90.935759 137.885,154.89468"
       id="path887" />
    <path
       style="fill:none;stroke:#000000;stroke-width:0.264583px;stroke-linecap:butt;stroke-linejoin:miter;stroke-opacity:1"
       d="M 153.06295,100.82849 137.885,154.89468"
       id="path889" />
    <path
       style="fill:none;stroke:#000000;stroke-width:0.264583px;stroke-linecap:butt;stroke-linejoin:miter;stroke-opacity:1"
       d="m 147.33867,152.53149 -9.45367,2.36319"
       id="path891" />
    <path
       style="fill:none;stroke:#000000;stroke-width:0.264583px;stroke-linecap:butt;stroke-linejoin:miter;stroke-opacity:1"
       d="M 137.885,154.89468 65.024542,153.66199 101.57464,90.935759"
       id="path893" />
    <path
       style="fill:none;stroke:#000000;stroke-width:0.388176px;stroke-linecap:butt;stroke-linejoin:miter;stroke-opacity:1"
       d="m 92.889727,115.65618 9.651223,5.57213"
       id="path2598" />
    <path
       style="fill:none;stroke:#000000;stroke-width:0.388176px;stroke-linecap:butt;stroke-linejoin:miter;stroke-opacity:1"
       d="m 92.889727,122.63009 9.651223,5.57214"
       id="path2600" />
    <path
       style="fill:none;stroke:#000000;stroke-width:0.388176px;stroke-linecap:butt;stroke-linejoin:miter;stroke-opacity:1"
       d="m 92.889727,128.9857 9.651223,5.57214"
       id="path2682" />
    <path
       style="fill:none;stroke:#000000;stroke-width:0.388176px;stroke-linecap:butt;stroke-linejoin:miter;stroke-opacity:1"
       d="m 92.889727,135.40322 9.651223,5.57214"
       id="path2684" />
    <path
       style="fill:none;stroke:#000000;stroke-width:0.388176px;stroke-linecap:butt;stroke-linejoin:miter;stroke-opacity:1"
       d="m 106.51336,141.78367 9.65123,5.57214"
       id="path2686" />
    <path
       style="fill:none;stroke:#000000;stroke-width:0.388176px;stroke-linecap:butt;stroke-linejoin:miter;stroke-opacity:1"
       d="m 106.51336,136.10836 9.65123,5.57213"
       id="path2688" />
    <path
       style="fill:none;stroke:#000000;stroke-width:0.388176px;stroke-linecap:butt;stroke-linejoin:miter;stroke-opacity:1"
       d="m 106.51336,129.53166 9.65123,5.57213"
       id="path2729" />
    <path
       style="fill:none;stroke:#000000;stroke-width:0.388176px;stroke-linecap:butt;stroke-linejoin:miter;stroke-opacity:1"
       d="m 106.51336,123.0509 9.65123,5.57213"
       id="path2771" />
  </g>
</svg>
