<!--?xml version="1.0" encoding="UTF-8" standalone="no"?-->
<!-- Created with Inkscape (http://www.inkscape.org/) -->

<svg width="210mm" height="297mm" viewBox="0 0 210 297" version="1.1" id="svg5" inkscape:version="1.1.2 (0a00cf5339, 2022-02-04)" sodipodi:docname="pyramid1.svg" xmlns:inkscape="http://www.inkscape.org/namespaces/inkscape" xmlns:sodipodi="http://sodipodi.sourceforge.net/DTD/sodipodi-0.dtd" xmlns="http://www.w3.org/2000/svg" xmlns:svg="http://www.w3.org/2000/svg" style="">
  <sodipodi:namedview id="namedview7" pagecolor="#ffffff" bordercolor="#111111" borderopacity="1" inkscape:pageshadow="0" inkscape:pageopacity="0" inkscape:pagecheckerboard="1" inkscape:document-units="mm" showgrid="false" inkscape:zoom="0.77593294" inkscape:cx="367.94417" inkscape:cy="472.33463" inkscape:window-width="1553" inkscape:window-height="1081" inkscape:window-x="503" inkscape:window-y="98" inkscape:window-maximized="0" inkscape:current-layer="layer1"></sodipodi:namedview>
  <defs id="defs2"></defs>
  <g inkscape:label="Layer 1" inkscape:groupmode="layer" id="layer1">
    <path style="fill:none;stroke:#000000;stroke-width:0.264583px;stroke-linecap:butt;stroke-linejoin:miter;stroke-opacity:1" d="m 70.990816,154.8735 67.805314,0.54529" id="path869" class="GHAiuNTO_0"></path>
    <path style="fill:none;stroke:#000000;stroke-width:0.264583px;stroke-linecap:butt;stroke-linejoin:miter;stroke-opacity:1" d="m 111.1641,96.151307 27.63203,59.267483" id="path871" class="GHAiuNTO_1"></path>
    <path style="fill:none;stroke:#000000;stroke-width:0.264583px;stroke-linecap:butt;stroke-linejoin:miter;stroke-opacity:1" d="M 108.8226,96.12228 70.990816,154.8735" id="path873" class="GHAiuNTO_2"></path>
    <path style="fill:none;stroke:#000000;stroke-width:0.264583px;stroke-linecap:butt;stroke-linejoin:miter;stroke-opacity:1" d="m 111.1641,96.151305 -2.3415,-0.02902" id="path875" class="GHAiuNTO_3"></path>
    <path style="fill:none;stroke:#000000;stroke-width:0.264583px;stroke-linecap:butt;stroke-linejoin:miter;stroke-opacity:1" d="m 108.63357,113.76557 -0.3696,32.91301 z" id="path2461" class="GHAiuNTO_4"></path>
  </g>
<style data-made-with="vivus-instant">.GHAiuNTO_0{stroke-dasharray:68 70;stroke-dashoffset:69;animation:GHAiuNTO_draw 2000ms linear 0ms forwards;}.GHAiuNTO_1{stroke-dasharray:66 68;stroke-dashoffset:67;animation:GHAiuNTO_draw 2000ms linear 250ms forwards;}.GHAiuNTO_2{stroke-dasharray:70 72;stroke-dashoffset:71;animation:GHAiuNTO_draw 2000ms linear 500ms forwards;}.GHAiuNTO_3{stroke-dasharray:3 5;stroke-dashoffset:4;animation:GHAiuNTO_draw 2000ms linear 750ms forwards;}.GHAiuNTO_4{stroke-dasharray:66 68;stroke-dashoffset:67;animation:GHAiuNTO_draw 2000ms linear 1000ms forwards;}@keyframes GHAiuNTO_draw{100%{stroke-dashoffset:0;}}@keyframes GHAiuNTO_fade{0%{stroke-opacity:1;}94.44444444444444%{stroke-opacity:1;}100%{stroke-opacity:0;}}</style></svg>
